index,#,Target,Range,Speed,Max,Comments
0,1,50,10,8,100,Intro
1,2,25,10,8,100,
2,3,15,5,8,100,
3,4,60,10,5,100,
4,5,75,10,5,100,
5,6,25,5,5,100,
6,7,55,2,6,100,
7,8,40,10,6,100,Edgy
8,9,15,5,3,100,
9,10,90,5,5,100,
10,11,10,2,5,100,
11,12,50,5,3,100,
12,13,43,5,8,100,
13,14,50,1,8,100,
14,15,55,10,2,100,Fast
15,16,75,5,3,100,
16,17,45,3,2,100,
17,18,95,3,1.5,100,
18,19,50,2,2,100,
19,20,25,2,3,100,
20,21,40,1,2,100,
21,22,55,2,6,100,Accuracy
22,23,25,2,6,100,
23,24,75,2,5,100,
24,25,15,2,5,100,
25,26,60,1,4,100,
26,27,35,1,4,100,
27,28,80,1,3,100,
28,29,42,1,2,100,
29,30,99,1,1,100,
30,31,,,,,
31,32,,,,,
32,33,,,,,
33,34,,,,,
34,35,,,,,
35,36,,,,,
36,37,,,,,
37,38,,,,,
38,39,,,,,
39,40,,,,,
40,41,,,,,
41,42,,,,,
42,43,,,,,
43,44,,,,,
44,45,,,,,
45,46,,,,,
46,47,,,,,
47,48,,,,,
48,49,,,,,
49,50,,,,,
50,51,,,,,
51,52,,,,,
52,53,,,,,
53,54,,,,,
54,55,,,,,
55,56,,,,,
56,57,,,,,
57,58,,,,,
58,59,,,,,
59,60,,,,,
60,61,,,,,
61,62,,,,,
62,63,,,,,
63,64,,,,,
64,65,,,,,
65,66,,,,,
66,67,,,,,
67,68,,,,,
68,69,,,,,
69,70,,,,,
70,71,,,,,
71,72,,,,,
72,73,,,,,
73,74,,,,,
74,75,,,,,
75,76,,,,,
76,77,,,,,
77,78,,,,,
78,79,,,,,
79,80,,,,,
80,81,,,,,
81,82,,,,,
82,83,,,,,
83,84,,,,,
84,85,,,,,
85,86,,,,,
86,87,,,,,
87,88,,,,,
88,89,,,,,
89,90,,,,,